<?xml version='1.0' encoding='UTF-8'?>
<!-- Created with Inkscape (http://www.inkscape.org/) and export_objects.py -->
<svg xmlns:cc="http://creativecommons.org/ns#" xmlns:dc="http://purl.org/dc/elements/1.1/" xmlns:inkscape="http://www.inkscape.org/namespaces/inkscape" xmlns:rdf="http://www.w3.org/1999/02/22-rdf-syntax-ns#" xmlns:sodipodi="http://sodipodi.sourceforge.net/DTD/sodipodi-0.dtd" xmlns:xlink="http://www.w3.org/1999/xlink" xmlns="http://www.w3.org/2000/svg" version="1.1" id="svg1" width="16" height="16" viewBox="0 0 16 16">
<sodipodi:namedview 
    objecttolerance="10" 
    gridtolerance="10" 
    guidetolerance="10" 
    id="namedview" 
    showgrid="true" 
    inkscape:zoom="27.166187"
    inkscape:cx="7.4837792"
    inkscape:cy="8.9906751"
    inkscape:window-x="0" 
    inkscape:window-y="27"> 
    <inkscape:grid type="xygrid" id="grid"/>
  </sodipodi:namedview>
  <metadata
     id="metadata1906">
    <rdf:RDF>
      <cc:Work
         rdf:about="">
        <dc:format>image/svg+xml</dc:format>
        <dc:type
           rdf:resource="http://purl.org/dc/dcmitype/StillImage" />
        <cc:license
           rdf:resource="http://creativecommons.org/publicdomain/zero/1.0/" />
        <dc:title>fe Editor new Icons proposal</dc:title>
        <dc:date>13 Nov 2018</dc:date>
        <dc:creator>
          <cc:Agent>
            <dc:title>Ramón Miranda</dc:title>
          </cc:Agent>
        </dc:creator>
        <dc:rights>
          <cc:Agent>
            <dc:title>see the license tab</dc:title>
          </cc:Agent>
        </dc:rights>
        <dc:subject>
          <rdf:Bag>
            <rdf:li>icon ui</rdf:li>
          </rdf:Bag>
        </dc:subject>
        <dc:description>This is a little contribution with Inkscape Project
Ramon Miranda  www.ramonmiranda.com (design and SVG file)
Jabiertxo (SVG stuff to integrate them in UI)</dc:description>
        <dc:publisher>
          <cc:Agent>
            <dc:title></dc:title>
          </cc:Agent>
        </dc:publisher>
        <dc:identifier></dc:identifier>
        <dc:source />
        <dc:relation />
        <dc:language>-</dc:language>
        <dc:coverage />
        <dc:contributor>
          <cc:Agent>
            <dc:title>Ramon Miranda
Jabier Arraiza</dc:title>
          </cc:Agent>
        </dc:contributor>
      </cc:Work>
      <cc:License
         rdf:about="http://creativecommons.org/publicdomain/zero/1.0/">
        <cc:permits
           rdf:resource="http://creativecommons.org/ns#Reproduction" />
        <cc:permits
           rdf:resource="http://creativecommons.org/ns#Distribution" />
        <cc:permits
           rdf:resource="http://creativecommons.org/ns#DerivativeWorks" />
      </cc:License>
    </rdf:RDF>
  </metadata>
  <g inkscape:groupmode="layer"
     id="layercompo"
     inkscape:label="feMerge">
        <path 
            id="rect22048" 
            d="M 0,0 H 16 V 16 H 0 Z" 
            style="opacity:0;fill:none" />
        <path
           id="path9609"
           d="m 10.782269,13.083079 -0.9456764,-0.544578 -5.158e-4,-1.09969 -5.158e-4,-1.09969 0.044212,0.02307 c 0.02432,0.01269 0.452749,0.258588 0.952072,0.546447 l 0.907856,0.523378 0.003,1.098548 c 0.0017,0.604201 -9.95e-4,1.09822 -0.0059,1.09782 -0.0049,-4.01e-4 -0.434457,-0.245785 -0.954578,-0.545303 z M 3.3744777,3.7060626 C 3.111849,3.5545653 2.8929611,3.4292418 2.8880646,3.4275654 c -0.0049,-0.00169 -0.00755,-0.4950602 -0.00589,-1.0964105 l 0.00302,-1.09336 1.6300166,0.9385284 1.6300166,0.9385283 v 0.2639145 c 0,0.1451527 -0.00313,0.2639144 -0.00699,0.2639144 -0.00385,0 -0.048788,-0.038826 -0.099865,-0.086277 C 5.7928001,3.3282682 5.4974544,3.1656737 5.2270002,3.1097267 5.0772935,3.0787559 4.8397959,3.0850267 4.7072584,3.1234472 4.3795419,3.2184448 4.1032958,3.4740657 3.9177772,3.853986 3.8847764,3.9215682 3.8564768,3.9779095 3.8548889,3.979188 3.8533046,3.9804775 3.637121,3.8575635 3.3744924,3.7060626 Z"
           style="opacity:0.2;fill:#000000" />
        <path
           id="path9607"
           d="m 13.39038,12.377241 c -0.875434,-0.50572 -1.604959,-0.925023 -1.621171,-0.931786 l -0.02948,-0.0123 0.003,-2.5487355 0.003,-2.5487359 L 8.9617448,4.732744 C 7.4305502,3.8511232 6.1703845,3.1244936 6.1613799,3.1180091 6.1475783,3.1080687 6.1454892,2.9347085 6.1480609,2.0127855 l 0.00306,-1.09343357 4.4213841,2.54609607 4.421381,2.5460939 0.003,3.6437184 c 0.0016,2.0040457 -10e-4,3.6432127 -0.0059,3.6425937 -0.0049,-6.11e-4 -0.725126,-0.414894 -1.60056,-0.920613 z M 13.719242,8.5676462 C 13.965166,8.4508578 14.126276,8.1744184 14.17527,7.785187 14.196411,7.6172332 14.183048,7.3278141 14.145958,7.1503105 14.063012,6.753332 13.890484,6.4050781 13.656078,6.1614423 13.450726,5.948008 13.253252,5.8472739 13.040863,5.8476166 c -0.168058,2.579e-4 -0.287708,0.052808 -0.418624,0.1838127 -0.178688,0.1788098 -0.287307,0.5062114 -0.286997,0.8650792 5.89e-4,0.6898115 0.372297,1.4157588 0.84258,1.6455903 0.126193,0.061671 0.194803,0.076587 0.331957,0.072167 0.108711,-0.0035 0.12746,-0.00768 0.209463,-0.04662 z"
           style="opacity:0.4;fill:#000000" />
        <path
           id="path9605"
           d="M 8.0776418,10.02849 C 7.6484875,9.9044551 7.2770376,9.3978064 7.1387782,8.7479032 7.1105634,8.6152636 7.1073617,8.5751711 7.1067759,8.3470311 7.1062601,8.1419116 7.1103129,8.0744142 7.1280494,7.9933206 7.1784772,7.7628152 7.2621822,7.5936386 7.3881284,7.4676725 7.6662092,7.189546 8.0478096,7.2384802 8.3943606,7.5967047 8.7266162,7.940152 8.9273402,8.4692288 8.927285,9.0013957 c 0,0.3217925 -0.061028,0.5603206 -0.194689,0.7613739 C 8.6633484,9.8669361 8.5809698,9.9399705 8.4719606,9.9938454 8.3897256,10.034489 8.376193,10.037453 8.2580282,10.0407 8.1780149,10.0429 8.1120464,10.038434 8.0776418,10.02849 Z M 3.4898497,9.2609634 C 2.6075779,9.116914 1.7775688,8.0066374 1.5536591,6.6709828 1.508452,6.4013038 1.495962,6.2151802 1.5032349,5.9195685 1.5103789,5.6293171 1.5278464,5.4859343 1.5837161,5.258964 1.6802721,4.8667008 1.8220058,4.5944184 2.0480156,4.3670075 2.1780809,4.2361353 2.2624896,4.1757376 2.3958193,4.1181289 c 0.1586596,-0.068548 0.2219643,-0.080363 0.430407,-0.080334 0.2129561,2.21e-5 0.297958,0.017445 0.4938997,0.1011983 0.4632678,0.1980234 0.9038363,0.6618774 1.2174823,1.2818367 0.2229665,0.4407159 0.3603195,0.9061491 0.4303592,1.4583022 0.02285,0.1801472 0.019269,0.6746909 -0.00615,0.8489055 C 4.8851062,8.2538908 4.7183299,8.647392 4.4565045,8.9203199 4.3405208,9.0412225 4.2509134,9.1074747 4.1164232,9.1717701 3.9265644,9.2625377 3.6984104,9.295015 3.4898497,9.2609634 Z"
           style="opacity:0.4;fill:#000000" />
        <path
           id="path9603"
           d="m 10.784715,10.877382 -0.9432295,-0.544673 -0.0035,-1.4556104 -0.0035,-1.45561 L 8.490655,6.6492204 C 7.5105082,6.0859531 7.1454985,5.8705709 7.141932,5.8533715 7.1392425,5.8404022 7.1258867,5.7608175 7.1122545,5.6765163 7.0085287,5.0350787 6.7149257,4.3490278 6.3452885,3.884382 6.2575233,3.7740612 6.1578245,3.6662604 6.1435586,3.6662604 c -0.0055,0 -0.011363,0.3651055 -0.013028,0.8113479 L 6.1275096,5.2889547 4.9988166,4.6397254 C 4.378035,4.2826503 3.8700168,3.9848066 3.8698916,3.9778505 c 0,-0.00696 0.024074,-0.062664 0.053788,-0.1237982 0.1490545,-0.3066936 0.3664576,-0.5381451 0.6187847,-0.6587785 0.1541463,-0.073691 0.2608786,-0.097635 0.4413828,-0.09901 0.2140319,-0.00162 0.3800897,0.038336 0.5874345,0.1413874 0.1813258,0.090119 0.3070657,0.1788278 0.4720993,0.3330662 l 0.095919,0.089648 0.00317,-0.2682289 c 0.00173,-0.1475292 0.00705,-0.2680004 0.01179,-0.2677204 0.00474,3.684e-4 1.2634116,0.7233838 2.7970416,1.6068946 l 2.7884165,1.6063811 0.003,2.5433107 c 0.0016,1.3988205 -10e-4,2.5428025 -0.0059,2.5421815 -0.0049,-6.23e-4 -0.433325,-0.246232 -0.952097,-0.545802 z"
           style="opacity:0.6;fill:#000000" />
        <path
           id="path9601"
           d="m 8.2063108,10.048578 c 0.00851,-0.0034 0.01868,-0.003 0.0226,9.32e-4 0.00392,0.0039 -0.00306,0.0067 -0.015478,0.0062 -0.013735,-5.68e-4 -0.016528,-0.0034 -0.00712,-0.0071 z M 8.9307077,9.0367667 c 0,-0.025939 0.00254,-0.035162 0.00536,-0.020496 0.00284,0.014666 0.00273,0.035889 -3.685e-4,0.047162 -0.00295,0.011273 -0.00526,-7.295e-4 -0.00512,-0.026666 z m -6.631e-4,-0.082532 c 3.684e-4,-0.019454 0.00287,-0.025985 0.00587,-0.014514 0.00298,0.011472 0.0028,0.027389 -4.421e-4,0.035371 -0.00324,0.00798 -0.00568,-0.0014 -0.00544,-0.020857 z M 2.5718507,8.762641 2.5432677,8.730217 2.5756937,8.758801 c 0.030304,0.026716 0.037827,0.036263 0.028583,0.036263 -0.0021,0 -0.016705,-0.014591 -0.032426,-0.032424 z M 2.5004997,8.691899 c -0.014667,-0.0187 -0.014251,-0.019118 0.00445,-0.00445 0.011348,0.0089 0.020633,0.018185 0.020633,0.020633 0,0.0097 -0.00968,0.00346 -0.025083,-0.016181 z M 7.0921011,8.3293524 c 0,-0.038908 0.00228,-0.053404 0.00489,-0.032212 0.00262,0.021191 0.00258,0.053025 0,0.070742 -0.00269,0.017717 -0.00484,3.795e-4 -0.00477,-0.03853 z M 7.3832098,7.4568662 c 0.015227,-0.016212 0.030341,-0.029476 0.033583,-0.029476 0.00324,0 -0.00657,0.013264 -0.021793,0.029476 -0.015231,0.016212 -0.030344,0.029476 -0.033587,0.029476 -0.00324,0 0.00657,-0.013264 0.021797,-0.029476 z M 4.9789063,7.0550119 c 5.527e-4,-0.013735 0.00335,-0.016529 0.00713,-0.00712 0.00339,0.00851 0.00298,0.01868 -9.211e-4,0.022598 -0.00392,0.00392 -0.00671,-0.00305 -0.00619,-0.015475 z M 1.492075,6.0066528 c 0,-0.051877 0.0021,-0.071634 0.00461,-0.043902 0.00251,0.027732 0.00247,0.070177 0,0.094323 -0.00254,0.024146 -0.00457,0.00146 -0.00453,-0.050421 z M 4.0214441,4.6595984 c -0.014667,-0.0187 -0.014251,-0.019117 0.00445,-0.00445 0.011348,0.0089 0.020632,0.018185 0.020632,0.020633 0,0.0097 -0.00968,0.00346 -0.025083,-0.016182 z M 2.8470835,4.0235919 c 0.011473,-0.00298 0.027389,-0.0028 0.03537,4.421e-4 0.00798,0.00324 -0.0014,0.00567 -0.020857,0.00543 -0.019453,-3.684e-4 -0.025986,-0.00287 -0.014513,-0.00587 z"
           style="opacity:0.5;fill:#000000" />
        <path
           id="path9599"
           d="M 13.419858,8.6056323 C 13.170766,8.5833442 12.90935,8.3922264 12.700273,8.0795546 12.256481,7.4158763 12.225208,6.4474445 12.63411,6.0306737 c 0.118282,-0.12056 0.248167,-0.1745131 0.416782,-0.1731307 0.196645,0.00161 0.374298,0.090269 0.570472,0.2846924 0.254478,0.2522045 0.435723,0.6102274 0.519881,1.0269401 0.0233,0.1153783 0.02715,0.1703022 0.02722,0.3879021 0,0.283747 -0.01317,0.3743815 -0.0814,0.5562228 -0.13036,0.3474356 -0.363547,0.5195033 -0.667205,0.4923319 z M 6.6404389,5.5905746 6.1393474,5.3005855 l 0.0035,-0.8201108 0.0035,-0.8201092 0.064731,0.070743 C 6.5737188,4.1274098 6.8785371,4.720075 7.0357819,5.3345962 7.0675595,5.4587853 7.1518172,5.8893434 7.1428458,5.8817058 7.1421089,5.8810757 6.9160144,5.7500687 6.6404168,5.5905746 Z"
           style="opacity:0.75;fill:#000000" />
        <path
           id="path9597"
           d="M 5.4000472,12.169592 0.9821889,9.6262843 0.9815994,5.9847518 c -5.1581e-4,-3.2331119 0.0014,-3.6407717 0.0171175,-3.6347441 0.00973,0.00374 0.4355099,0.2473975 0.9461734,0.5414685 0.5106672,0.2940746 1.1460131,0.6596185 1.4118877,0.8123242 2.7950226,1.6053431 2.9652806,1.7032967 5.1435411,2.9591973 l 1.3352566,0.7698587 v 3.6404826 c 0,2.002265 -0.00398,3.640275 -0.00884,3.640021 -0.00486,-2.58e-4 -1.9968795,-1.144949 -4.4267008,-2.543768 z M 8.4232975,10.023617 C 8.6874331,9.9300584 8.8761313,9.6263204 8.9265039,9.2136219 8.993574,8.6641415 8.7801574,7.9920554 8.4166288,7.6079416 8.2994256,7.484101 8.2041591,7.4118927 8.0847232,7.3563731 7.9662231,7.3012886 7.9023694,7.2858625 7.793585,7.2860394 7.5521009,7.2864336 7.3604736,7.4192154 7.2322763,7.6749812 7.0795706,7.9796465 7.0486293,8.3677729 7.1430926,8.7936873 c 0.1430859,0.6451585 0.5437528,1.1584799 0.9770005,1.2517047 0.073919,0.01591 0.228084,0.0048 0.3032044,-0.02177 z M 3.8790104,9.2597431 C 4.3135328,9.1702087 4.6641072,8.8063803 4.8491505,8.2529303 4.948293,7.9564037 4.9917021,7.6600768 4.9916763,7.2800044 4.9916763,6.4207351 4.7044141,5.5397307 4.2063253,4.8708925 4.0845646,4.7073909 3.8020551,4.4258467 3.6574439,4.3238931 3.1959777,3.9985382 2.7296997,3.9342498 2.3320098,4.1411488 1.687103,4.4766688 1.3640729,5.4764658 1.5355836,6.6061211 c 0.1861302,1.2259137 0.8820287,2.2839605 1.7092009,2.5986624 0.1863144,0.070885 0.4472188,0.093494 0.6342259,0.05496 z"
           style="opacity:1;fill:#000000" />
    </g>
</svg>
